{
  "project_info": {
    "project_number": "487071853958",
    "firebase_url": "https://skupimapp.firebaseio.com",
    "project_id": "skupimapp",
    "storage_bucket": "skupimapp.appspot.com"
  },
  "client": [
    {
      "client_info": {
        "mobilesdk_app_id": "1:487071853958:android:dc35a28ed48a35839a1007",
        "android_client_info": {
          "package_name": "com.example.skupimapp"
        }
      },
      "oauth_client": [
        {
          "client_id": "487071853958-u4h1ur5bjled7fkrajge1ekr5tl4q3rj.apps.googleusercontent.com",
          "client_type": 1,
          "android_info": {
            "package_name": "com.example.skupimapp",
            "certificate_hash": "fd704fe4ce3536c9e10b63adcb2f8a5c74bcc9d8"
          }
        },
        {
          "client_id": "487071853958-js11q003m0eacrnsod9ephhcgb6vlo7n.apps.googleusercontent.com",
          "client_type": 3
        }
      ],
      "api_key": [
        {
          "current_key": "AIzaSyCN_k492B5QAe-HBVtnq8CqWTRu0Gazv2Q"
        }
      ],
      "services": {
        "appinvite_service": {
          "other_platform_oauth_client": [
            {
              "client_id": "487071853958-js11q003m0eacrnsod9ephhcgb6vlo7n.apps.googleusercontent.com",
              "client_type": 3
            }
          ]
        }
      }
    }
  ],
  "configuration_version": "1"
}